%YAML 1.1
%TAG !u! tag:unity3d.com,2011:
--- !u!21 &2100000
Material:
  serializedVersion: 6
  m_ObjectHideFlags: 0
  m_CorrespondingSourceObject: {fileID: 0}
  m_PrefabInstance: {fileID: 0}
  m_PrefabAsset: {fileID: 0}
  m_Name: Internal Colors
  m_Shader: {fileID: 4800000, guid: 853be43322d350648a82ec17b27de5cf, type: 3}
  m_ShaderKeywords: 
  m_LightmapFlags: 4
  m_EnableInstancingVariants: 0
  m_DoubleSidedGI: 0
  m_CustomRenderQueue: 3000
  stringTagMap: {}
  disabledShaderPasses: []
  m_SavedProperties:
    serializedVersion: 3
    m_TexEnvs:
    - _BumpMap:
        m_Texture: {fileID: 0}
        m_Scale: {x: 1, y: 1}
        m_Offset: {x: 0, y: 0}
    - _DetailAlbedoMap:
        m_Texture: {fileID: 0}
        m_Scale: {x: 1, y: 1}
        m_Offset: {x: 0, y: 0}
    - _DetailMask:
        m_Texture: {fileID: 0}
        m_Scale: {x: 1, y: 1}
        m_Offset: {x: 0, y: 0}
    - _DetailNormalMap:
        m_Texture: {fileID: 0}
        m_Scale: {x: 1, y: 1}
        m_Offset: {x: 0, y: 0}
    - _EmissionMap:
        m_Texture: {fileID: 0}
        m_Scale: {x: 1, y: 1}
        m_Offset: {x: 0, y: 0}
    - _MainTex:
        m_Texture: {fileID: 2800000, guid: 9ba96de1d1f95c14a994715665da0304, type: 3}
        m_Scale: {x: 1, y: 1}
        m_Offset: {x: 0, y: 0}
    - _MetallicGlossMap:
        m_Texture: {fileID: 0}
        m_Scale: {x: 1, y: 1}
        m_Offset: {x: 0, y: 0}
    - _OcclusionMap:
        m_Texture: {fileID: 0}
        m_Scale: {x: 1, y: 1}
        m_Offset: {x: 0, y: 0}
    - _ParallaxMap:
        m_Texture: {fileID: 0}
        m_Scale: {x: 1, y: 1}
        m_Offset: {x: 0, y: 0}
    m_Floats:
    - _AdvancedCat: 1
    - _Banner: 0
    - _BumpScale: 1
    - _Cutoff: 0.5
    - _DetailNormalMapScale: 1
    - _DstBlend: 0
    - _ElementCat: 0
    - _ElementIntensity: 1
    - _ElementMode: 0
    - _GlossMapScale: 1
    - _Glossiness: 0.5
    - _GlossyReflections: 1
    - _Intensity: 1
    - _IsStandardPipeline: 1
    - _IsTVEElement: 1
    - _IsTVEShader: 1
    - _IsVersion: 110
    - _Metallic: 0
    - _Mode: 0
    - _OcclusionStrength: 1
    - _Parallax: 0.02
    - _SeasonMode: 0
    - _SeasonMode_Seasons: 0
    - _SeasonMode_Simple: 0
    - _SmoothnessTextureChannel: 0
    - _SpecularHighlights: 1
    - _SrcBlend: 1
    - _UVSec: 0
    - _ZWrite: 1
    - __priority: 0
    m_Colors:
    - _Autumn: {r: 0.7205882, g: 0.40253538, b: 0, a: 1}
    - _AutumnColor: {r: 0.5019608, g: 0.5019608, b: 0.5019608, a: 1}
    - _Color: {r: 1, g: 1, b: 1, a: 1}
    - _EmissionColor: {r: 0, g: 0, b: 0, a: 1}
    - _MainColor: {r: 0.5019608, g: 0.5019608, b: 0.5019608, a: 1}
    - _MainUVs: {r: 1, g: 1, b: 0, a: 0}
    - _Simple: {r: 0.5019608, g: 0.5019608, b: 0.5019608, a: 1}
    - _Spring: {r: 0.5779411, g: 0.6397059, b: 0, a: 1}
    - _SpringColor: {r: 0.5019608, g: 0.5019608, b: 0.5019608, a: 1}
    - _Summer: {r: 0.19082147, g: 0.5220588, b: 0, a: 1}
    - _SummerColor: {r: 0.5019608, g: 0.5019608, b: 0.5019608, a: 1}
    - _Winter: {r: 0.27205878, g: 0.27205878, b: 0.27205878, a: 1}
    - _WinterColor: {r: 0.5019608, g: 0.5019608, b: 0.5019608, a: 1}
