%YAML 1.1
%TAG !u! tag:unity3d.com,2011:
--- !u!114 &11400000
MonoBehaviour:
  m_ObjectHideFlags: 0
  m_CorrespondingSourceObject: {fileID: 0}
  m_PrefabInstance: {fileID: 0}
  m_PrefabAsset: {fileID: 0}
  m_GameObject: {fileID: 0}
  m_Enabled: 1
  m_EditorHideFlags: 0
  m_Script: {fileID: 11500000, guid: 78b2425a2284af743826c689403a4924, type: 3}
  m_Name: Base Element
  m_EditorClassIdentifier: 
  m_functionInfo: "// Made with Amplify Shader Editor\n// Available at the Unity Asset
    Store - http://u3d.as/y3X \n/*ASEBEGIN\nVersion=17802\n1927;1;1906;1020;5326.361;3278.797;1;True;False\nNode;AmplifyShaderEditor.RegisterLocalVarNode;59;-2624,-1728;Half;False;Color_Spring;-1;True;1;0;FLOAT3;0,0,0;False;1;FLOAT3;0\nNode;AmplifyShaderEditor.SwizzleNode;4;-4656,-1968;Inherit;False;FLOAT2;2;3;2;3;1;0;FLOAT4;0,0,0,0;False;1;FLOAT2;0\nNode;AmplifyShaderEditor.GetLocalVarNode;71;-3456,128;Inherit;False;55;Element_Mode;1;0;OBJECT;;False;1;FLOAT;0\nNode;AmplifyShaderEditor.GetLocalVarNode;62;-4864,-128;Inherit;False;58;Color_Winter;1;0;OBJECT;;False;1;FLOAT3;0\nNode;AmplifyShaderEditor.RegisterLocalVarNode;212;-2144,1920;Half;False;Final_Leaves_RGBA;-1;True;1;0;FLOAT4;0,0,0,0;False;1;FLOAT4;0\nNode;AmplifyShaderEditor.LerpOp;15;-4352,464;Inherit;False;3;0;FLOAT3;0,0,0;False;1;FLOAT3;0,0,0;False;2;FLOAT;0;False;1;FLOAT3;0\nNode;AmplifyShaderEditor.SimpleMultiplyOpNode;178;-4608,1920;Inherit;False;2;2;0;FLOAT;0;False;1;FLOAT;0;False;1;FLOAT;0\nNode;AmplifyShaderEditor.FunctionSubtitle;306;-832,-2112;Inherit;False;ColorsHDR;1;0;FLOAT4;0,0,0,0;False;1;FLOAT4;0\nNode;AmplifyShaderEditor.GetLocalVarNode;335;-1152,-960;Inherit;False;229;Final_Size_A;1;0;OBJECT;;False;1;FLOAT;0\nNode;AmplifyShaderEditor.GetLocalVarNode;336;-1152,-896;Inherit;False;241;Final_Overlay_A;1;0;OBJECT;;False;1;FLOAT;0\nNode;AmplifyShaderEditor.RegisterLocalVarNode;157;-1856,-2176;Half;False;Value_Main;-1;True;1;0;FLOAT;0;False;1;FLOAT;0\nNode;AmplifyShaderEditor.DynamicAppendNode;184;-2304,1920;Inherit;False;FLOAT4;4;0;FLOAT;0;False;1;FLOAT;0;False;2;FLOAT;0;False;3;FLOAT;0;False;1;FLOAT4;0\nNode;AmplifyShaderEditor.RegisterLocalVarNode;248;-2160,3456;Half;False;Final_Wetness_RGBA;-1;True;1;0;FLOAT4;0,0,0,0;False;1;FLOAT4;0\nNode;AmplifyShaderEditor.GetLocalVarNode;312;-1152,-2112;Inherit;False;206;Final_ColorsHDR_RGBA;1;0;OBJECT;;False;1;FLOAT4;0\nNode;AmplifyShaderEditor.GetLocalVarNode;314;-1152,-1984;Inherit;False;227;Final_Size_RGBA;1;0;OBJECT;;False;1;FLOAT4;0\nNode;AmplifyShaderEditor.FunctionSwitch;146;-512,-1664;Inherit;False;Option;False;0;2;-1;In
    0;In 1;Instance;145;9;0;FLOAT3;0,0,0;False;1;FLOAT3;0,0,0;False;2;FLOAT3;0,0,0;False;3;FLOAT3;0,0,0;False;4;FLOAT3;0,0,0;False;5;FLOAT3;0,0,0;False;6;FLOAT3;0,0,0;False;7;FLOAT;0;False;8;FLOAT;0;False;1;FLOAT3;0\nNode;AmplifyShaderEditor.GetLocalVarNode;230;-2816,2528;Inherit;False;73;MainTex_R;1;0;OBJECT;;False;1;FLOAT;0\nNode;AmplifyShaderEditor.RegisterLocalVarNode;49;-2624,-2176;Half;False;Color_Main;-1;True;1;0;FLOAT3;0,0,0;False;1;FLOAT3;0\nNode;AmplifyShaderEditor.GetLocalVarNode;64;-4864,384;Inherit;False;60;Color_Summer;1;0;OBJECT;;False;1;FLOAT3;0\nNode;AmplifyShaderEditor.GetLocalVarNode;315;-1152,-1920;Inherit;False;237;Final_Overlay_RGBA;1;0;OBJECT;;False;1;FLOAT4;0\nNode;AmplifyShaderEditor.GetLocalVarNode;338;-1152,-768;Inherit;False;305;Final_MotionInteraction_A;1;0;OBJECT;;False;1;FLOAT;0\nNode;AmplifyShaderEditor.GetLocalVarNode;316;-1152,-1856;Inherit;False;248;Final_Wetness_RGBA;1;0;OBJECT;;False;1;FLOAT4;0\nNode;AmplifyShaderEditor.RegisterLocalVarNode;60;-2624,-1536;Half;False;Color_Summer;-1;True;1;0;FLOAT3;0,0,0;False;1;FLOAT3;0\nNode;AmplifyShaderEditor.RegisterLocalVarNode;160;-1856,-1536;Half;False;Value_Summer;-1;True;1;0;FLOAT;0;False;1;FLOAT;0\nNode;AmplifyShaderEditor.GetLocalVarNode;313;-1152,-2048;Inherit;False;212;Final_Leaves_RGBA;1;0;OBJECT;;False;1;FLOAT4;0\nNode;AmplifyShaderEditor.GetLocalVarNode;322;-1152,-1408;Inherit;False;238;Final_Overlay_RGB;1;0;OBJECT;;False;1;FLOAT3;0\nNode;AmplifyShaderEditor.FunctionSwitch;148;-512,-1152;Inherit;False;Option;False;0;2;-1;In
    0;In 1;Instance;145;9;0;FLOAT;0;False;1;FLOAT;0;False;2;FLOAT;0;False;3;FLOAT;0;False;4;FLOAT;0;False;5;FLOAT;0;False;6;FLOAT;0;False;7;FLOAT;0;False;8;FLOAT;0;False;1;FLOAT;0\nNode;AmplifyShaderEditor.LerpOp;224;-2560,2304;Inherit;False;3;0;FLOAT;1;False;1;FLOAT;0;False;2;FLOAT;0;False;1;FLOAT;0\nNode;AmplifyShaderEditor.SimpleAddOpNode;11;-4288,-2176;Inherit;False;2;2;0;FLOAT2;0,0;False;1;FLOAT2;0,0;False;1;FLOAT2;0\nNode;AmplifyShaderEditor.FunctionSwitch;145;-512,-2176;Inherit;False;Element
    Mode;False;0;9;-1;Colors;Colors HDR;Leaves;Size;Overlay;Wetness;Motion Interaction;Empty;Empty;Object;-1;9;0;FLOAT4;0,0,0,0;False;1;FLOAT4;0,0,0,0;False;2;FLOAT4;0,0,0,0;False;3;FLOAT4;0,0,0,0;False;4;FLOAT4;0,0,0,0;False;5;FLOAT4;0,0,0,0;False;6;FLOAT4;0,0,0,0;False;7;FLOAT;0;False;8;FLOAT;0;False;1;FLOAT4;0\nNode;AmplifyShaderEditor.GetLocalVarNode;103;-3712,1280;Inherit;False;74;MainTex_A;1;0;OBJECT;;False;1;FLOAT;0\nNode;AmplifyShaderEditor.SwizzleNode;77;-2816,-2176;Inherit;False;FLOAT3;0;1;2;3;1;0;COLOR;0,0,0,0;False;1;FLOAT3;0\nNode;AmplifyShaderEditor.SwizzleNode;81;-2816,-1344;Inherit;False;FLOAT3;0;1;2;3;1;0;COLOR;0,0,0,0;False;1;FLOAT3;0\nNode;AmplifyShaderEditor.Vector3Node;264;-2432,3584;Half;False;Constant;_Vector0;Vector
    0;22;0;Create;True;0;0;False;0;0,0,0;0,0,0;0;4;FLOAT3;0;FLOAT;1;FLOAT;2;FLOAT;3\nNode;AmplifyShaderEditor.RegisterLocalVarNode;73;-3712,-2112;Half;False;MainTex_R;-1;True;1;0;FLOAT;0;False;1;FLOAT;0\nNode;AmplifyShaderEditor.RegisterLocalVarNode;144;-2432,-128;Half;False;Final_Colors_A;-1;True;1;0;FLOAT;0;False;1;FLOAT;0\nNode;AmplifyShaderEditor.GetLocalVarNode;323;-1152,-1344;Inherit;False;249;Final_Wetness_RGB;1;0;OBJECT;;False;1;FLOAT3;0\nNode;AmplifyShaderEditor.RegisterLocalVarNode;142;-2944,-256;Half;False;Final_Colors_RGB;-1;True;1;0;FLOAT3;0,0,0;False;1;FLOAT3;0\nNode;AmplifyShaderEditor.GetLocalVarNode;318;-1152,-1664;Inherit;False;142;Final_Colors_RGB;1;0;OBJECT;;False;1;FLOAT3;0\nNode;AmplifyShaderEditor.SimpleMultiplyOpNode;89;-4224,1152;Inherit;False;2;2;0;FLOAT3;0,0,0;False;1;FLOAT3;0,0,0;False;1;FLOAT3;0\nNode;AmplifyShaderEditor.RegisterLocalVarNode;205;-3072,1344;Float;False;Final_ColorsHDR_A;-1;True;1;0;FLOAT;0;False;1;FLOAT;0\nNode;AmplifyShaderEditor.SwizzleNode;79;-2816,-1728;Inherit;False;FLOAT3;0;1;2;3;1;0;COLOR;0,0,0,0;False;1;FLOAT3;0\nNode;AmplifyShaderEditor.RegisterLocalVarNode;204;-4032,1280;Float;False;Final_ColorsHDR_RGB;-1;True;1;0;FLOAT3;0,0,0;False;1;FLOAT3;0\nNode;AmplifyShaderEditor.RegisterLocalVarNode;161;-1856,-1344;Half;False;Value_Autumn;-1;True;1;0;FLOAT;0;False;1;FLOAT;0\nNode;AmplifyShaderEditor.GetLocalVarNode;88;-4864,1344;Inherit;False;19;MainTex_RGB;1;0;OBJECT;0;False;1;FLOAT3;0\nNode;AmplifyShaderEditor.FunctionNode;340;256,-2176;Inherit;False;Is
    Pipeline;2;;51;6a59a34c4be5db64ca90ee69227573b8;0;0;1;FLOAT;0\nNode;AmplifyShaderEditor.ScaleAndOffsetNode;269;-4608,4352;Inherit;False;3;0;FLOAT;0;False;1;FLOAT;2;False;2;FLOAT;-1;False;1;FLOAT;0\nNode;AmplifyShaderEditor.GetLocalVarNode;261;-4096,3584;Inherit;False;56;Element_Intensity;1;0;OBJECT;;False;1;FLOAT;0\nNode;AmplifyShaderEditor.OneMinusNode;256;-4096,3456;Inherit;False;1;0;FLOAT;0;False;1;FLOAT;0\nNode;AmplifyShaderEditor.SwizzleNode;78;-2816,-1920;Inherit;False;FLOAT3;0;1;2;3;1;0;COLOR;0,0,0,0;False;1;FLOAT3;0\nNode;AmplifyShaderEditor.SwizzleNode;80;-2816,-1536;Inherit;False;FLOAT3;0;1;2;3;1;0;COLOR;0,0,0,0;False;1;FLOAT3;0\nNode;AmplifyShaderEditor.ScaleAndOffsetNode;270;-4608,4224;Inherit;False;3;0;FLOAT;0;False;1;FLOAT;2;False;2;FLOAT;-1;False;1;FLOAT;0\nNode;AmplifyShaderEditor.FunctionNode;349;-4000,-2816;Inherit;False;Base
    Version;0;;50;e2b980d656c48d6418cb026a36dea5ac;0;0;1;FLOAT;0\nNode;AmplifyShaderEditor.RangedFloatNode;10;-4864,-992;Half;False;Global;TVE_SeasonLerp;TVE_SeasonLerp;14;0;Create;True;0;0;False;0;0;0;0;0;0;1;FLOAT;0\nNode;AmplifyShaderEditor.RegisterLocalVarNode;74;-3712,-1920;Half;False;MainTex_A;-1;True;1;0;FLOAT;0;False;1;FLOAT;0\nNode;AmplifyShaderEditor.FunctionSubtitle;307;-832,-2048;Inherit;False;Leaves;1;0;FLOAT4;0,0,0,0;False;1;FLOAT4;0\nNode;AmplifyShaderEditor.SimpleMultiplyOpNode;351;-4480,-1664;Inherit;False;2;2;0;FLOAT;0;False;1;FLOAT;0;False;1;FLOAT;0\nNode;AmplifyShaderEditor.GetLocalVarNode;320;-1152,-1536;Inherit;False;210;Final_Leaves_RGB;1;0;OBJECT;;False;1;FLOAT3;0\nNode;AmplifyShaderEditor.RangedFloatNode;29;-4864,-1792;Inherit;False;Property;_ElementMode;Element
    Mode;12;1;[Enum];Create;False;2;Main;0;Seasons;1;0;False;0;0;0;0;0;0;1;FLOAT;0\nNode;AmplifyShaderEditor.FunctionSubtitle;162;-832,-2176;Inherit;False;Colors;1;0;FLOAT4;0,0,0,0;False;1;FLOAT4;0\nNode;AmplifyShaderEditor.RegisterLocalVarNode;54;-4480,-992;Half;False;TVE_SeasonLerp;-1;True;1;0;FLOAT;0;False;1;FLOAT;0\nNode;AmplifyShaderEditor.LerpOp;13;-4352,-48;Inherit;False;3;0;FLOAT3;0,0,0;False;1;FLOAT3;0,0,0;False;2;FLOAT;0;False;1;FLOAT3;0\nNode;AmplifyShaderEditor.RegisterLocalVarNode;56;-4224,-1664;Half;False;Element_Intensity;-1;True;1;0;FLOAT;0;False;1;FLOAT;0\nNode;AmplifyShaderEditor.RegisterLocalVarNode;51;-4480,-1216;Half;False;TVE_SeasonOptions_Y;-1;True;1;0;FLOAT;0;False;1;FLOAT;0\nNode;AmplifyShaderEditor.FunctionSubtitle;310;-832,-1856;Inherit;False;Wetness;1;0;FLOAT4;0,0,0,0;False;1;FLOAT4;0\nNode;AmplifyShaderEditor.RangedFloatNode;46;-4096,-3072;Half;False;Property;__priority;Priority;28;1;[IntRange];Create;False;0;0;True;0;0;0;-50;50;0;1;FLOAT;0\nNode;AmplifyShaderEditor.GetLocalVarNode;334;-1152,-1024;Inherit;False;211;Final_Leaves_A;1;0;OBJECT;;False;1;FLOAT;0\nNode;AmplifyShaderEditor.RegisterLocalVarNode;237;-2144,2688;Half;False;Final_Overlay_RGBA;-1;True;1;0;FLOAT4;0,0,0,0;False;1;FLOAT4;0\nNode;AmplifyShaderEditor.SimpleMultiplyOpNode;254;-4352,3456;Inherit;False;2;2;0;FLOAT;0;False;1;FLOAT;0;False;1;FLOAT;0\nNode;AmplifyShaderEditor.GetLocalVarNode;319;-1152,-1600;Inherit;False;204;Final_ColorsHDR_RGB;1;0;OBJECT;;False;1;FLOAT3;0\nNode;AmplifyShaderEditor.FunctionSubtitle;309;-832,-1920;Inherit;False;Overlay;1;0;FLOAT4;0,0,0,0;False;1;FLOAT4;0\nNode;AmplifyShaderEditor.RangedFloatNode;341;-4673,-3072;Half;False;Property;_IsTVEElement;_IsTVEElement;7;1;[HideInInspector];Create;False;0;0;True;0;1;1;1;1;0;1;FLOAT;0\nNode;AmplifyShaderEditor.VertexColorNode;288;-4864,-1600;Inherit;False;0;5;COLOR;0;FLOAT;1;FLOAT;2;FLOAT;3;FLOAT;4\nNode;AmplifyShaderEditor.RegisterLocalVarNode;52;-4480,-1152;Half;False;TVE_SeasonOptions_Z;-1;True;1;0;FLOAT;0;False;1;FLOAT;0\nNode;AmplifyShaderEditor.FunctionSubtitle;311;-832,-1792;Inherit;False;Motion
    Interaction;1;0;FLOAT4;0,0,0,0;False;1;FLOAT4;0\nNode;AmplifyShaderEditor.RangedFloatNode;40;-4864,-2816;Half;False;Property;_ElementCat;[
    Element Cat ];9;0;Create;True;0;0;True;1;StyledCategory(Element);0;0;0;0;0;1;FLOAT;0\nNode;AmplifyShaderEditor.GetLocalVarNode;337;-1152,-832;Inherit;False;250;Final_Wetness_A;1;0;OBJECT;;False;1;FLOAT;0\nNode;AmplifyShaderEditor.GetLocalVarNode;149;-1152,-2176;Inherit;False;143;Final_Colors_RGBA;1;0;OBJECT;;False;1;FLOAT4;0\nNode;AmplifyShaderEditor.RangedFloatNode;38;-4672,-2816;Half;False;Property;_AdvancedCat;[
    Advanced Cat];27;0;Create;True;0;0;True;1;StyledCategory(Advanced);1;1;1;1;0;1;FLOAT;0\nNode;AmplifyShaderEditor.RangedFloatNode;43;-4320,-2720;Half;False;Property;_SeasonMode_Reset;#
    SeasonMode_Reset;26;0;Create;True;0;0;False;1;StyledInteractive(ON);0;0;0;0;0;1;FLOAT;0\nNode;AmplifyShaderEditor.RangedFloatNode;37;-4608,-2720;Half;False;Property;_SeasonMode_Seasons;#
    SeasonMode_Seasons;17;0;Create;True;0;0;True;1;StyledInteractive(_ElementMode,
    1);0;0;0;0;0;1;FLOAT;0\nNode;AmplifyShaderEditor.RangedFloatNode;39;-4864,-2720;Half;False;Property;_SeasonMode_Simple;#
    SeasonMode_Simple;13;0;Create;True;0;0;True;1;StyledInteractive(_ElementMode,
    0);0;0;0;0;0;1;FLOAT;0\nNode;AmplifyShaderEditor.RangedFloatNode;32;-4864,-1664;Inherit;False;Property;_ElementIntensity;Intensity;8;0;Create;False;0;0;False;0;1;1;0;1;0;1;FLOAT;0\nNode;AmplifyShaderEditor.GetLocalVarNode;203;-3840,2048;Inherit;False;55;Element_Mode;1;0;OBJECT;;False;1;FLOAT;0\nNode;AmplifyShaderEditor.SimpleMultiplyOpNode;172;-4096,3072;Inherit;False;2;2;0;FLOAT;0;False;1;FLOAT;0;False;1;FLOAT;0\nNode;AmplifyShaderEditor.RegisterLocalVarNode;61;-2624,-1344;Half;False;Color_Autumn;-1;True;1;0;FLOAT3;0,0,0;False;1;FLOAT3;0\nNode;AmplifyShaderEditor.GetLocalVarNode;102;-3712,1344;Inherit;False;56;Element_Intensity;1;0;OBJECT;;False;1;FLOAT;0\nNode;AmplifyShaderEditor.ColorNode;97;-4864,1152;Half;False;Property;_MainColorHDR;Color
    HDR;14;1;[HDR];Create;False;0;0;False;0;1,0.5,0,1;0,0,0,0;True;0;5;COLOR;0;FLOAT;1;FLOAT;2;FLOAT;3;FLOAT;4\nNode;AmplifyShaderEditor.FunctionSubtitle;308;-832,-1984;Inherit;False;Size;1;0;FLOAT4;0,0,0,0;False;1;FLOAT4;0\nNode;AmplifyShaderEditor.RegisterLocalVarNode;50;-4480,-1280;Half;False;TVE_SeasonOptions_X;-1;True;1;0;FLOAT;0;False;1;FLOAT;0\nNode;AmplifyShaderEditor.RegisterLocalVarNode;229;-2128,2528;Half;False;Final_Size_A;-1;True;1;0;FLOAT;0;False;1;FLOAT;0\nNode;AmplifyShaderEditor.GetLocalVarNode;193;-4864,1920;Inherit;False;157;Value_Main;1;0;OBJECT;;False;1;FLOAT;0\nNode;AmplifyShaderEditor.SimpleMultiplyOpNode;27;-4608,-384;Inherit;False;2;2;0;FLOAT3;0,0,0;False;1;FLOAT3;0,0,0;False;1;FLOAT3;0\nNode;AmplifyShaderEditor.GetLocalVarNode;72;-2944,-64;Inherit;False;56;Element_Intensity;1;0;OBJECT;;False;1;FLOAT;0\nNode;AmplifyShaderEditor.GetLocalVarNode;324;-1152,-1280;Inherit;False;303;Final_MotionInteraction_RGB;1;0;OBJECT;;False;1;FLOAT3;0\nNode;AmplifyShaderEditor.NegateNode;272;-4384,4352;Inherit;False;1;0;FLOAT;0;False;1;FLOAT;0\nNode;AmplifyShaderEditor.RegisterLocalVarNode;238;-2144,2816;Half;False;Final_Overlay_RGB;-1;True;1;0;FLOAT3;0,0,0;False;1;FLOAT3;0\nNode;AmplifyShaderEditor.RegisterLocalVarNode;210;-2144,2048;Half;False;Final_Leaves_RGB;-1;True;1;0;FLOAT3;0,0,0;False;1;FLOAT3;0\nNode;AmplifyShaderEditor.LerpOp;12;-4352,720;Inherit;False;3;0;FLOAT3;0,0,0;False;1;FLOAT3;0,0,0;False;2;FLOAT;0;False;1;FLOAT3;0\nNode;AmplifyShaderEditor.GetLocalVarNode;333;-1152,-1088;Inherit;False;205;Final_ColorsHDR_A;1;0;OBJECT;;False;1;FLOAT;0\nNode;AmplifyShaderEditor.GetLocalVarNode;68;-4352,128;Inherit;False;51;TVE_SeasonOptions_Y;1;0;OBJECT;;False;1;FLOAT;0\nNode;AmplifyShaderEditor.LerpOp;233;-2560,2688;Inherit;False;3;0;FLOAT;1;False;1;FLOAT;0;False;2;FLOAT;0;False;1;FLOAT;0\nNode;AmplifyShaderEditor.GetLocalVarNode;317;-1152,-1792;Inherit;False;304;Final_MotionInteraction_RGBA;1;0;OBJECT;;False;1;FLOAT4;0\nNode;AmplifyShaderEditor.RegisterLocalVarNode;58;-2624,-1920;Half;False;Color_Winter;-1;True;1;0;FLOAT3;0,0,0;False;1;FLOAT3;0\nNode;AmplifyShaderEditor.SimpleMultiplyOpNode;20;-3968,128;Inherit;False;2;2;0;FLOAT;0;False;1;FLOAT3;0,0,0;False;1;FLOAT3;0\nNode;AmplifyShaderEditor.SimpleMultiplyOpNode;5;-4480,-2176;Inherit;False;2;2;0;FLOAT2;0,0;False;1;FLOAT2;0,0;False;1;FLOAT2;0\nNode;AmplifyShaderEditor.DynamicAppendNode;232;-2304,2432;Inherit;False;FLOAT3;4;0;FLOAT;0;False;1;FLOAT;0;False;2;FLOAT;0;False;3;FLOAT;0;False;1;FLOAT3;0\nNode;AmplifyShaderEditor.RegisterLocalVarNode;266;-3712,-1984;Half;False;MainTex_B;-1;True;1;0;FLOAT;0;False;1;FLOAT;0\nNode;AmplifyShaderEditor.GetLocalVarNode;174;-3840,2176;Inherit;False;73;MainTex_R;1;0;OBJECT;0;False;1;FLOAT;0\nNode;AmplifyShaderEditor.RegisterLocalVarNode;53;-4480,-1088;Half;False;TVE_SeasonOptions_W;-1;True;1;0;FLOAT;0;False;1;FLOAT;0\nNode;AmplifyShaderEditor.Vector4Node;16;-4864,-1280;Half;False;Global;TVE_SeasonOptions;TVE_SeasonOptions;14;0;Create;True;0;0;False;0;0,0,0,0;0,0,1,0;0;5;FLOAT4;0;FLOAT;1;FLOAT;2;FLOAT;3;FLOAT;4\nNode;AmplifyShaderEditor.DynamicAppendNode;35;-2432,-384;Inherit;False;FLOAT4;4;0;FLOAT3;0,0,0;False;1;FLOAT;0;False;2;FLOAT;0;False;3;FLOAT;0;False;1;FLOAT4;0\nNode;AmplifyShaderEditor.SimpleMultiplyOpNode;176;-3584,2304;Inherit;False;2;2;0;FLOAT;0;False;1;FLOAT;0;False;1;FLOAT;0\nNode;AmplifyShaderEditor.RegisterLocalVarNode;250;-3328,3648;Half;False;Final_Wetness_A;-1;True;1;0;FLOAT;0;False;1;FLOAT;0\nNode;AmplifyShaderEditor.SimpleAddOpNode;25;-3712,128;Inherit;False;4;4;0;FLOAT3;0,0,0;False;1;FLOAT3;0,0,0;False;2;FLOAT3;0,0,0;False;3;FLOAT3;0,0,0;False;1;FLOAT3;0\nNode;AmplifyShaderEditor.GetLocalVarNode;226;-2816,2384;Inherit;False;56;Element_Intensity;1;0;OBJECT;;False;1;FLOAT;0\nNode;AmplifyShaderEditor.RangedFloatNode;44;-4864,-3072;Half;False;Property;_IsTVEShader;_IsTVEShader;6;1;[HideInInspector];Create;False;0;0;True;0;1;1;1;1;0;1;FLOAT;0\nNode;AmplifyShaderEditor.RegisterLocalVarNode;213;-3200,1920;Half;False;Base_Extras;-1;True;1;0;FLOAT;0;False;1;FLOAT;0\nNode;AmplifyShaderEditor.RegisterLocalVarNode;249;-2144,3584;Half;False;Final_Wetness_RGB;-1;True;1;0;FLOAT3;0,0,0;False;1;FLOAT3;0\nNode;AmplifyShaderEditor.RegisterLocalVarNode;265;-3712,-2048;Half;False;MainTex_G;-1;True;1;0;FLOAT;0;False;1;FLOAT;0\nNode;AmplifyShaderEditor.GetLocalVarNode;198;-4864,2176;Inherit;False;158;Value_Winter;1;0;OBJECT;;False;1;FLOAT;0\nNode;AmplifyShaderEditor.GetLocalVarNode;65;-4864,640;Inherit;False;61;Color_Autumn;1;0;OBJECT;;False;1;FLOAT3;0\nNode;AmplifyShaderEditor.SimpleMultiplyOpNode;169;-4096,2816;Inherit;False;2;2;0;FLOAT;0;False;1;FLOAT;0;False;1;FLOAT;0\nNode;AmplifyShaderEditor.SimpleMultiplyOpNode;18;-3968,640;Inherit;False;2;2;0;FLOAT;0;False;1;FLOAT3;0,0,0;False;1;FLOAT3;0\nNode;AmplifyShaderEditor.SimpleMultiplyOpNode;21;-3968,384;Inherit;False;2;2;0;FLOAT;0;False;1;FLOAT3;0,0,0;False;1;FLOAT3;0\nNode;AmplifyShaderEditor.GetLocalVarNode;207;-2816,2000;Inherit;False;56;Element_Intensity;1;0;OBJECT;;False;1;FLOAT;0\nNode;AmplifyShaderEditor.GetLocalVarNode;63;-4864,128;Inherit;False;59;Color_Spring;1;0;OBJECT;;False;1;FLOAT3;0\nNode;AmplifyShaderEditor.SimpleMultiplyOpNode;34;-2688,-128;Inherit;False;2;2;0;FLOAT;0;False;1;FLOAT;0;False;1;FLOAT;0\nNode;AmplifyShaderEditor.DynamicAppendNode;236;-2304,2688;Inherit;False;FLOAT4;4;0;FLOAT;0;False;1;FLOAT;0;False;2;FLOAT;0;False;3;FLOAT;0;False;1;FLOAT4;0\nNode;AmplifyShaderEditor.LerpOp;182;-2560,1920;Inherit;False;3;0;FLOAT;1;False;1;FLOAT;0;False;2;FLOAT;0;False;1;FLOAT;0\nNode;AmplifyShaderEditor.GetLocalVarNode;26;-4864,-304;Inherit;False;19;MainTex_RGB;1;0;OBJECT;0;False;1;FLOAT3;0\nNode;AmplifyShaderEditor.SimpleAddOpNode;175;-3840,2304;Inherit;False;4;4;0;FLOAT;0;False;1;FLOAT;0;False;2;FLOAT;0;False;3;FLOAT;0;False;1;FLOAT;0\nNode;AmplifyShaderEditor.TexCoordVertexDataNode;3;-4864,-2176;Inherit;False;0;2;0;5;FLOAT2;0;FLOAT;1;FLOAT;2;FLOAT;3;FLOAT;4\nNode;AmplifyShaderEditor.GetLocalVarNode;235;-2816,2768;Inherit;False;56;Element_Intensity;1;0;OBJECT;;False;1;FLOAT;0\nNode;AmplifyShaderEditor.DynamicAppendNode;209;-2304,2048;Inherit;False;FLOAT3;4;0;FLOAT;0;False;1;FLOAT;0;False;2;FLOAT;0;False;3;FLOAT;0;False;1;FLOAT3;0\nNode;AmplifyShaderEditor.LerpOp;166;-4480,2816;Inherit;False;3;0;FLOAT;0;False;1;FLOAT;0;False;2;FLOAT;0;False;1;FLOAT;0\nNode;AmplifyShaderEditor.GetLocalVarNode;252;-4864,3552;Inherit;False;73;MainTex_R;1;0;OBJECT;0;False;1;FLOAT;0\nNode;AmplifyShaderEditor.GetLocalVarNode;260;-4864,3456;Inherit;False;157;Value_Main;1;0;OBJECT;;False;1;FLOAT;0\nNode;AmplifyShaderEditor.DynamicAppendNode;258;-2432,3456;Inherit;False;FLOAT4;4;0;FLOAT;1;False;1;FLOAT;1;False;2;FLOAT;1;False;3;FLOAT;0;False;1;FLOAT4;0\nNode;AmplifyShaderEditor.LerpOp;165;-4480,3072;Inherit;False;3;0;FLOAT;0;False;1;FLOAT;0;False;2;FLOAT;0;False;1;FLOAT;0\nNode;AmplifyShaderEditor.GetLocalVarNode;195;-4480,2432;Inherit;False;51;TVE_SeasonOptions_Y;1;0;OBJECT;;False;1;FLOAT;0\nNode;AmplifyShaderEditor.GetLocalVarNode;234;-2816,2688;Inherit;False;213;Base_Extras;1;0;OBJECT;;False;1;FLOAT;0\nNode;AmplifyShaderEditor.DynamicAppendNode;239;-2304,2816;Inherit;False;FLOAT3;4;0;FLOAT;0;False;1;FLOAT;0;False;2;FLOAT;0;False;3;FLOAT;0;False;1;FLOAT3;0\nNode;AmplifyShaderEditor.GetLocalVarNode;57;-4864,-384;Inherit;False;49;Color_Main;1;0;OBJECT;;False;1;FLOAT3;0\nNode;AmplifyShaderEditor.LerpOp;181;-3392,1920;Inherit;False;3;0;FLOAT;0;False;1;FLOAT;0;False;2;FLOAT;0;False;1;FLOAT;0\nNode;AmplifyShaderEditor.GetLocalVarNode;173;-4864,1984;Inherit;False;73;MainTex_R;1;0;OBJECT;0;False;1;FLOAT;0\nNode;AmplifyShaderEditor.LerpOp;30;-3200,-384;Inherit;False;3;0;FLOAT3;0,0,0;False;1;FLOAT3;0,0,0;False;2;FLOAT;0;False;1;FLOAT3;0\nNode;AmplifyShaderEditor.Vector4Node;1;-4864,-2048;Half;False;Property;_MainUVs;Texture
    UVs;11;0;Create;False;0;0;False;0;1,1,0,0;1,1,0,0;0;5;FLOAT4;0;FLOAT;1;FLOAT;2;FLOAT;3;FLOAT;4\nNode;AmplifyShaderEditor.SwizzleNode;2;-4656,-2048;Inherit;False;FLOAT2;0;1;2;3;1;0;FLOAT4;0,0,0,0;False;1;FLOAT2;0\nNode;AmplifyShaderEditor.ColorNode;6;-3072,-1728;Half;False;Property;_SpringColor;Spring;19;0;Create;False;0;0;False;0;0.5019608,0.5019608,0.5019608,1;0.5779411,0.6397059,0,1;True;0;5;COLOR;0;FLOAT;1;FLOAT;2;FLOAT;3;FLOAT;4\nNode;AmplifyShaderEditor.GetLocalVarNode;225;-2816,2304;Inherit;False;213;Base_Extras;1;0;OBJECT;;False;1;FLOAT;0\nNode;AmplifyShaderEditor.RegisterLocalVarNode;19;-3520,-2176;Half;False;MainTex_RGB;-1;True;1;0;FLOAT3;0,0,0;False;1;FLOAT3;0\nNode;AmplifyShaderEditor.SimpleMultiplyOpNode;104;-3456,1280;Inherit;False;2;2;0;FLOAT;0;False;1;FLOAT;0;False;1;FLOAT;0\nNode;AmplifyShaderEditor.GetLocalVarNode;23;-3712,-128;Inherit;False;19;MainTex_RGB;1;0;OBJECT;0;False;1;FLOAT3;0\nNode;AmplifyShaderEditor.SimpleMultiplyOpNode;170;-4096,2304;Inherit;False;2;2;0;FLOAT;0;False;1;FLOAT;0;False;1;FLOAT;0\nNode;AmplifyShaderEditor.NegateNode;271;-4384,4224;Inherit;False;1;0;FLOAT;0;False;1;FLOAT;0\nNode;AmplifyShaderEditor.GetLocalVarNode;69;-4352,384;Inherit;False;52;TVE_SeasonOptions_Z;1;0;OBJECT;;False;1;FLOAT;0\nNode;AmplifyShaderEditor.RegisterLocalVarNode;228;-2144,2432;Half;False;Final_Size_RGB;-1;True;1;0;FLOAT3;0,0,0;False;1;FLOAT3;0\nNode;AmplifyShaderEditor.RegisterLocalVarNode;227;-2144,2304;Half;False;Final_Size_RGBA;-1;True;1;0;FLOAT4;0,0,0,0;False;1;FLOAT4;0\nNode;AmplifyShaderEditor.SwizzleNode;100;-4608,1152;Inherit;False;FLOAT3;0;1;2;3;1;0;COLOR;0,0,0,0;False;1;FLOAT3;0\nNode;AmplifyShaderEditor.DynamicAppendNode;231;-2304,2304;Inherit;False;FLOAT4;4;0;FLOAT;0;False;1;FLOAT;0;False;2;FLOAT;0;False;3;FLOAT;0;False;1;FLOAT4;0\nNode;AmplifyShaderEditor.GetLocalVarNode;183;-2816,2144;Inherit;False;73;MainTex_R;1;0;OBJECT;;False;1;FLOAT;0\nNode;AmplifyShaderEditor.GetLocalVarNode;302;-4864,4352;Inherit;False;265;MainTex_G;1;0;OBJECT;;False;1;FLOAT;0\nNode;AmplifyShaderEditor.RegisterLocalVarNode;206;-2176,1152;Float;False;Final_ColorsHDR_RGBA;-1;True;1;0;FLOAT4;0,0,0,0;False;1;FLOAT4;0\nNode;AmplifyShaderEditor.GetLocalVarNode;199;-4864,2432;Inherit;False;159;Value_Spring;1;0;OBJECT;;False;1;FLOAT;0\nNode;AmplifyShaderEditor.GetLocalVarNode;301;-4864,4224;Inherit;False;73;MainTex_R;1;0;OBJECT;;False;1;FLOAT;0\nNode;AmplifyShaderEditor.GetLocalVarNode;83;-2944,-128;Inherit;False;74;MainTex_A;1;0;OBJECT;;False;1;FLOAT;0\nNode;AmplifyShaderEditor.ColorNode;9;-3072,-1920;Half;False;Property;_WinterColor;Winter;18;0;Create;False;0;0;False;1;Space(10);0.5019608,0.5019608,0.5019608,1;0.2720588,0.2720588,0.2720588,1;True;0;5;COLOR;0;FLOAT;1;FLOAT;2;FLOAT;3;FLOAT;4\nNode;AmplifyShaderEditor.GetLocalVarNode;321;-1152,-1472;Inherit;False;228;Final_Size_RGB;1;0;OBJECT;;False;1;FLOAT3;0\nNode;AmplifyShaderEditor.LerpOp;14;-4352,208;Inherit;False;3;0;FLOAT3;0,0,0;False;1;FLOAT3;0,0,0;False;2;FLOAT;0;False;1;FLOAT3;0\nNode;AmplifyShaderEditor.RangedFloatNode;153;-2176,-1344;Half;False;Property;_AutumnValue;Autumn;25;0;Create;False;0;0;False;0;1;1;0;1;0;1;FLOAT;0\nNode;AmplifyShaderEditor.GetLocalVarNode;201;-4864,2944;Inherit;False;161;Value_Autumn;1;0;OBJECT;;False;1;FLOAT;0\nNode;AmplifyShaderEditor.RegisterLocalVarNode;158;-1856,-1920;Half;False;Value_Winter;-1;True;1;0;FLOAT;0;False;1;FLOAT;0\nNode;AmplifyShaderEditor.LerpOp;257;-3712,3456;Inherit;False;3;0;FLOAT;1;False;1;FLOAT;0;False;2;FLOAT;0;False;1;FLOAT;0\nNode;AmplifyShaderEditor.RegisterLocalVarNode;159;-1856,-1728;Half;False;Value_Spring;-1;True;1;0;FLOAT;0;False;1;FLOAT;0\nNode;AmplifyShaderEditor.RegisterLocalVarNode;211;-2128,2144;Half;False;Final_Leaves_A;-1;True;1;0;FLOAT;0;False;1;FLOAT;0\nNode;AmplifyShaderEditor.GetLocalVarNode;197;-4480,2944;Inherit;False;53;TVE_SeasonOptions_W;1;0;OBJECT;;False;1;FLOAT;0\nNode;AmplifyShaderEditor.RangedFloatNode;152;-2176,-1728;Half;False;Property;_SpringValue;Spring;23;0;Create;False;0;0;False;0;1;1;0;1;0;1;FLOAT;0\nNode;AmplifyShaderEditor.SimpleMultiplyOpNode;28;-3456,-128;Inherit;False;2;2;0;FLOAT3;0,0,0;False;1;FLOAT3;0,0,0;False;1;FLOAT3;0\nNode;AmplifyShaderEditor.ColorNode;8;-3072,-1344;Half;False;Property;_AutumnColor;Autumn;21;0;Create;False;0;0;False;0;0.5019608,0.5019608,0.5019608,1;0.7205882,0.4025353,0,1;True;0;5;COLOR;0;FLOAT;1;FLOAT;2;FLOAT;3;FLOAT;4\nNode;AmplifyShaderEditor.GetLocalVarNode;332;-1152,-1152;Inherit;False;144;Final_Colors_A;1;0;OBJECT;;False;1;FLOAT;0\nNode;AmplifyShaderEditor.DynamicAppendNode;108;-3072,1152;Inherit;False;FLOAT4;4;0;FLOAT3;0,0,0;False;1;FLOAT;0;False;2;FLOAT;0;False;3;FLOAT;0;False;1;FLOAT4;0\nNode;AmplifyShaderEditor.ColorNode;7;-3072,-1536;Half;False;Property;_SummerColor;Summer;20;0;Create;False;0;0;False;0;0.5019608,0.5019608,0.5019608,1;0.1908214,0.5220588,0,1;True;0;5;COLOR;0;FLOAT;1;FLOAT;2;FLOAT;3;FLOAT;4\nNode;AmplifyShaderEditor.SimpleMultiplyOpNode;171;-4096,2560;Inherit;False;2;2;0;FLOAT;0;False;1;FLOAT;0;False;1;FLOAT;0\nNode;AmplifyShaderEditor.ColorNode;24;-3072,-2176;Half;False;Property;_MainColor;Main;15;0;Create;False;0;0;False;1;Space(10);0.5019608,0.5019608,0.5019608,1;0.5019608,0.5019608,0.5019608,1;True;0;5;COLOR;0;FLOAT;1;FLOAT;2;FLOAT;3;FLOAT;4\nNode;AmplifyShaderEditor.GetLocalVarNode;214;-2816,1920;Inherit;False;213;Base_Extras;1;0;OBJECT;;False;1;FLOAT;0\nNode;AmplifyShaderEditor.RangedFloatNode;156;-2176,-2176;Half;False;Property;_MainValue;Main;16;0;Create;False;0;0;False;1;Space(10);1;1;0;1;0;1;FLOAT;0\nNode;AmplifyShaderEditor.LerpOp;167;-4480,2560;Inherit;False;3;0;FLOAT;0;False;1;FLOAT;0;False;2;FLOAT;0;False;1;FLOAT;0\nNode;AmplifyShaderEditor.GetLocalVarNode;194;-4480,2176;Inherit;False;50;TVE_SeasonOptions_X;1;0;OBJECT;;False;1;FLOAT;0\nNode;AmplifyShaderEditor.RegisterLocalVarNode;143;-2176,-384;Half;False;Final_Colors_RGBA;-1;True;1;0;FLOAT4;0,0,0,0;False;1;FLOAT4;0\nNode;AmplifyShaderEditor.OneMinusNode;253;-4544,3456;Inherit;False;1;0;FLOAT;0;False;1;FLOAT;0\nNode;AmplifyShaderEditor.GetLocalVarNode;70;-4352,640;Inherit;False;53;TVE_SeasonOptions_W;1;0;OBJECT;;False;1;FLOAT;0\nNode;AmplifyShaderEditor.SwizzleNode;76;-3712,-2176;Inherit;False;FLOAT3;0;1;2;3;1;0;COLOR;0,0,0,0;False;1;FLOAT3;0\nNode;AmplifyShaderEditor.RangedFloatNode;155;-2176,-1920;Half;False;Property;_WinterValue;Winter;22;0;Create;False;0;0;False;1;Space(10);1;1;0;1;0;1;FLOAT;0\nNode;AmplifyShaderEditor.RangedFloatNode;154;-2176,-1536;Half;False;Property;_SummerValue;Summer;24;0;Create;False;0;0;False;0;1;1;0;1;0;1;FLOAT;0\nNode;AmplifyShaderEditor.RegisterLocalVarNode;241;-2128,2912;Half;False;Final_Overlay_A;-1;True;1;0;FLOAT;0;False;1;FLOAT;0\nNode;AmplifyShaderEditor.GetLocalVarNode;200;-4864,2688;Inherit;False;160;Value_Summer;1;0;OBJECT;;False;1;FLOAT;0\nNode;AmplifyShaderEditor.LerpOp;168;-4480,2304;Inherit;False;3;0;FLOAT;0;False;1;FLOAT;0;False;2;FLOAT;0;False;1;FLOAT;0\nNode;AmplifyShaderEditor.SimpleMultiplyOpNode;22;-3968,-128;Inherit;False;2;2;0;FLOAT;0;False;1;FLOAT3;0,0,0;False;1;FLOAT3;0\nNode;AmplifyShaderEditor.RegisterLocalVarNode;55;-4224,-1792;Half;False;Element_Mode;-1;True;1;0;FLOAT;0;False;1;FLOAT;0\nNode;AmplifyShaderEditor.SamplerNode;17;-4096,-2176;Inherit;True;Property;_MainTex;Texture;10;1;[NoScaleOffset];Create;False;0;0;False;0;-1;None;None;True;0;False;white;Auto;False;Object;-1;Auto;Texture2D;6;0;SAMPLER2D;;False;1;FLOAT2;0,0;False;2;FLOAT;0;False;3;FLOAT2;0,0;False;4;FLOAT2;0,0;False;5;FLOAT;1;False;5;COLOR;0;FLOAT;1;FLOAT;2;FLOAT;3;FLOAT;4\nNode;AmplifyShaderEditor.GetLocalVarNode;202;-4864,3136;Inherit;False;54;TVE_SeasonLerp;1;0;OBJECT;;False;1;FLOAT;0\nNode;AmplifyShaderEditor.GetLocalVarNode;196;-4480,2688;Inherit;False;52;TVE_SeasonOptions_Z;1;0;OBJECT;;False;1;FLOAT;0\nNode;AmplifyShaderEditor.GetLocalVarNode;66;-4864,768;Inherit;False;54;TVE_SeasonLerp;1;0;OBJECT;;False;1;FLOAT;0\nNode;AmplifyShaderEditor.GetLocalVarNode;67;-4352,-128;Inherit;False;50;TVE_SeasonOptions_X;1;0;OBJECT;;False;1;FLOAT;0\nNode;AmplifyShaderEditor.GetLocalVarNode;240;-2816,2912;Inherit;False;73;MainTex_R;1;0;OBJECT;;False;1;FLOAT;0\nNode;AmplifyShaderEditor.ObjectScaleNode;277;-3456,4736;Inherit;False;False;0;4;FLOAT3;0;FLOAT;1;FLOAT;2;FLOAT;3\nNode;AmplifyShaderEditor.FunctionNode;282;-3072,4224;Inherit;False;Remap
    To 0-1;-1;;49;5eda8a2bb94ebef4ab0e43d19291cd8b;0;3;6;FLOAT;0;False;7;FLOAT;0;False;8;FLOAT;0;False;1;FLOAT;0\nNode;AmplifyShaderEditor.ObjectScaleNode;276;-3456,4352;Inherit;False;False;0;4;FLOAT3;0;FLOAT;1;FLOAT;2;FLOAT;3\nNode;AmplifyShaderEditor.BreakToComponentsNode;281;-3456,4224;Inherit;False;FLOAT3;1;0;FLOAT3;0,0,0;False;16;FLOAT;0;FLOAT;1;FLOAT;2;FLOAT;3;FLOAT;4;FLOAT;5;FLOAT;6;FLOAT;7;FLOAT;8;FLOAT;9;FLOAT;10;FLOAT;11;FLOAT;12;FLOAT;13;FLOAT;14;FLOAT;15\nNode;AmplifyShaderEditor.BreakToComponentsNode;279;-3456,4608;Inherit;False;FLOAT3;1;0;FLOAT3;0,0,0;False;16;FLOAT;0;FLOAT;1;FLOAT;2;FLOAT;3;FLOAT;4;FLOAT;5;FLOAT;6;FLOAT;7;FLOAT;8;FLOAT;9;FLOAT;10;FLOAT;11;FLOAT;12;FLOAT;13;FLOAT;14;FLOAT;15\nNode;AmplifyShaderEditor.NegateNode;280;-3200,4800;Inherit;False;1;0;FLOAT;0;False;1;FLOAT;0\nNode;AmplifyShaderEditor.NegateNode;278;-3200,4416;Inherit;False;1;0;FLOAT;0;False;1;FLOAT;0\nNode;AmplifyShaderEditor.FunctionNode;283;-3072,4608;Inherit;False;Remap
    To 0-1;-1;;48;5eda8a2bb94ebef4ab0e43d19291cd8b;0;3;6;FLOAT;0;False;7;FLOAT;0;False;8;FLOAT;0;False;1;FLOAT;0\nNode;AmplifyShaderEditor.RegisterLocalVarNode;284;-2816,4224;Half;False;normalX_WS;-1;True;1;0;FLOAT;0;False;1;FLOAT;0\nNode;AmplifyShaderEditor.RegisterLocalVarNode;285;-2816,4608;Half;False;normalZ_WS;-1;True;1;0;FLOAT;0;False;1;FLOAT;0\nNode;AmplifyShaderEditor.SimpleMultiplyOpNode;275;-3840,4224;Inherit;False;2;2;0;FLOAT4x4;0,0,0,0,0,1,0,0,0,0,1,0,0,0,0,1;False;1;FLOAT3;1,0,0;False;1;FLOAT3;0\nNode;AmplifyShaderEditor.DynamicAppendNode;274;-4096,4288;Inherit;False;FLOAT3;4;0;FLOAT;0;False;1;FLOAT;0;False;2;FLOAT;0;False;3;FLOAT;-1;False;1;FLOAT3;0\nNode;AmplifyShaderEditor.ObjectToWorldMatrixNode;273;-4096,4224;Inherit;False;0;1;FLOAT4x4;0\nNode;AmplifyShaderEditor.GetLocalVarNode;287;-4864,5248;Inherit;False;284;normalX_WS;1;0;OBJECT;0;False;1;FLOAT;0\nNode;AmplifyShaderEditor.VertexColorNode;352;-4864,5504;Inherit;False;0;5;COLOR;0;FLOAT;1;FLOAT;2;FLOAT;3;FLOAT;4\nNode;AmplifyShaderEditor.GetLocalVarNode;291;-4864,5376;Inherit;False;285;normalZ_WS;1;0;OBJECT;0;False;1;FLOAT;0\nNode;AmplifyShaderEditor.OneMinusNode;357;-4608,5248;Inherit;False;1;0;FLOAT;0;False;1;FLOAT;0\nNode;AmplifyShaderEditor.OneMinusNode;358;-4608,5376;Inherit;False;1;0;FLOAT;0;False;1;FLOAT;0\nNode;AmplifyShaderEditor.RegisterLocalVarNode;303;-2624,5248;Half;False;Final_MotionInteraction_RGB;-1;True;1;0;FLOAT3;0,0,0;False;1;FLOAT3;0\nNode;AmplifyShaderEditor.GetLocalVarNode;300;-4864,5824;Inherit;False;56;Element_Intensity;1;0;OBJECT;;False;1;FLOAT;0\nNode;AmplifyShaderEditor.SimpleMultiplyOpNode;293;-4352,5760;Inherit;False;2;2;0;FLOAT;0;False;1;FLOAT;0;False;1;FLOAT;0\nNode;AmplifyShaderEditor.RegisterLocalVarNode;304;-2624,5408;Half;False;Final_MotionInteraction_RGBA;-1;True;1;0;FLOAT4;0,0,0,0;False;1;FLOAT4;0\nNode;AmplifyShaderEditor.GetLocalVarNode;299;-4864,5760;Inherit;False;266;MainTex_B;1;0;OBJECT;;False;1;FLOAT;0\nNode;AmplifyShaderEditor.RegisterLocalVarNode;305;-2624,5568;Half;False;Final_MotionInteraction_A;-1;True;1;0;FLOAT;0;False;1;FLOAT;0\nNode;AmplifyShaderEditor.DynamicAppendNode;295;-2848,5376;Inherit;False;FLOAT4;4;0;FLOAT3;0,0,0;False;1;FLOAT;0;False;2;FLOAT;0;False;3;FLOAT;1;False;1;FLOAT4;0\nNode;AmplifyShaderEditor.FunctionSwitchByPipeline;350;-3104,5248;Inherit;False;4;0;FLOAT3;0,0,0;False;3;FLOAT3;0,0,0;False;1;FLOAT3;0,0,0;False;2;FLOAT3;0,0,0;False;1;FLOAT3;0\nNode;AmplifyShaderEditor.LerpOp;353;-4352,5312;Inherit;False;3;0;FLOAT;0;False;1;FLOAT;0;False;2;FLOAT;0;False;1;FLOAT;0\nNode;AmplifyShaderEditor.LerpOp;354;-4352,5440;Inherit;False;3;0;FLOAT;0;False;1;FLOAT;0;False;2;FLOAT;0;False;1;FLOAT;0\nNode;AmplifyShaderEditor.DynamicAppendNode;292;-4096,5440;Inherit;False;FLOAT3;4;0;FLOAT;0;False;1;FLOAT;0;False;2;FLOAT;0;False;3;FLOAT;0;False;1;FLOAT3;0\nNode;AmplifyShaderEditor.GammaToLinearNode;348;-3840,5248;Inherit;False;0;1;0;FLOAT3;0,0,0;False;1;FLOAT3;0\nNode;AmplifyShaderEditor.StaticSwitch;347;-3584,5248;Float;False;Property;_UNITY_COLORSPACE_GAMMA;UNITY_COLORSPACE_GAMMA;0;0;Create;True;0;0;False;0;0;0;0;False;UNITY_COLORSPACE_GAMMA;Toggle;2;Key0;Key1;Fetch;False;9;1;FLOAT3;0,0,0;False;0;FLOAT3;0,0,0;False;2;FLOAT3;0,0,0;False;3;FLOAT3;0,0,0;False;4;FLOAT3;0,0,0;False;5;FLOAT3;0,0,0;False;6;FLOAT3;0,0,0;False;7;FLOAT3;0,0,0;False;8;FLOAT3;0,0,0;False;1;FLOAT3;0\nNode;AmplifyShaderEditor.GammaToLinearNode;359;-3840,5504;Inherit;False;0;1;0;FLOAT3;0,0,0;False;1;FLOAT3;0\nNode;AmplifyShaderEditor.FunctionOutput;86;-128,-1152;Inherit;False;False;-1;A;2;False;1;0;FLOAT;0;False;1;FLOAT;0\nNode;AmplifyShaderEditor.FunctionOutput;0;-128,-2176;Inherit;False;True;-1;RGBA;0;False;1;0;FLOAT4;0,0,0,0;False;1;FLOAT4;0\nNode;AmplifyShaderEditor.FunctionOutput;339;512,-2176;Inherit;False;False;-1;Vertex;3;False;1;0;FLOAT;0;False;1;FLOAT;0\nNode;AmplifyShaderEditor.FunctionOutput;85;-128,-1664;Inherit;False;False;-1;RGB;1;False;1;0;FLOAT3;0,0,0;False;1;FLOAT3;0\nNode;AmplifyShaderEditor.CommentaryNode;84;-4864,-512;Inherit;False;2938.203;100;Color;0;;1,0.2895672,0.1839623,1;0;0\nNode;AmplifyShaderEditor.CommentaryNode;192;-4864,1792;Inherit;False;2943.149;100;Extras;0;;0.2216981,0.6673144,1,1;0;0\nNode;AmplifyShaderEditor.CommentaryNode;98;-4864,1024;Inherit;False;2943.149;100;Color
    HDR;0;;1,0.2895672,0.1839623,1;0;0\nNode;AmplifyShaderEditor.CommentaryNode;298;-4864,4096;Inherit;False;2943.149;100;Motion
    Interaction;0;;0.3420587,1,0.2235294,1;0;0\nNode;AmplifyShaderEditor.CommentaryNode;47;-4864,-3200;Inherit;False;1025.136;100;Internal;0;;1,0.252,0,1;0;0\nNode;AmplifyShaderEditor.CommentaryNode;48;-4864,-2944;Inherit;False;1025.473;100;Drawers;0;;1,0.252,0,1;0;0\nNode;AmplifyShaderEditor.CommentaryNode;259;-4864,3328;Inherit;False;2943.149;100;Wetness;0;;0.2216981,0.6673144,1,1;0;0\nWireConnection;59;0;79;0\nWireConnection;4;0;1;0\nWireConnection;212;0;184;0\nWireConnection;15;0;64;0\nWireConnection;15;1;65;0\nWireConnection;15;2;66;0\nWireConnection;178;0;193;0\nWireConnection;178;1;173;0\nWireConnection;306;0;312;0\nWireConnection;157;0;156;0\nWireConnection;184;0;182;0\nWireConnection;184;3;183;0\nWireConnection;248;0;258;0\nWireConnection;146;0;318;0\nWireConnection;146;1;319;0\nWireConnection;146;2;320;0\nWireConnection;146;3;321;0\nWireConnection;146;4;322;0\nWireConnection;146;5;323;0\nWireConnection;146;6;324;0\nWireConnection;49;0;77;0\nWireConnection;60;0;80;0\nWireConnection;160;0;154;0\nWireConnection;148;0;332;0\nWireConnection;148;1;333;0\nWireConnection;148;2;334;0\nWireConnection;148;3;335;0\nWireConnection;148;4;336;0\nWireConnection;148;5;337;0\nWireConnection;148;6;338;0\nWireConnection;224;1;225;0\nWireConnection;224;2;226;0\nWireConnection;11;0;5;0\nWireConnection;11;1;4;0\nWireConnection;145;0;162;0\nWireConnection;145;1;306;0\nWireConnection;145;2;307;0\nWireConnection;145;3;308;0\nWireConnection;145;4;309;0\nWireConnection;145;5;310;0\nWireConnection;145;6;311;0\nWireConnection;77;0;24;0\nWireConnection;81;0;8;0\nWireConnection;73;0;17;1\nWireConnection;144;0;34;0\nWireConnection;142;0;30;0\nWireConnection;89;0;100;0\nWireConnection;89;1;88;0\nWireConnection;205;0;104;0\nWireConnection;79;0;6;0\nWireConnection;204;0;89;0\nWireConnection;161;0;153;0\nWireConnection;269;0;302;0\nWireConnection;256;0;254;0\nWireConnection;78;0;9;0\nWireConnection;80;0;7;0\nWireConnection;270;0;301;0\nWireConnection;74;0;17;4\nWireConnection;307;0;313;0\nWireConnection;351;0;32;0\nWireConnection;351;1;288;4\nWireConnection;162;0;149;0\nWireConnection;54;0;10;0\nWireConnection;13;0;62;0\nWireConnection;13;1;63;0\nWireConnection;13;2;66;0\nWireConnection;56;0;351;0\nWireConnection;51;0;16;2\nWireConnection;310;0;316;0\nWireConnection;237;0;236;0\nWireConnection;254;0;253;0\nWireConnection;254;1;252;0\nWireConnection;309;0;315;0\nWireConnection;52;0;16;3\nWireConnection;311;0;317;0\nWireConnection;172;0;197;0\nWireConnection;172;1;165;0\nWireConnection;61;0;81;0\nWireConnection;308;0;314;0\nWireConnection;50;0;16;1\nWireConnection;229;0;230;0\nWireConnection;27;0;57;0\nWireConnection;27;1;26;0\nWireConnection;272;0;269;0\nWireConnection;238;0;239;0\nWireConnection;210;0;209;0\nWireConnection;12;0;65;0\nWireConnection;12;1;62;0\nWireConnection;12;2;66;0\nWireConnection;233;1;234;0\nWireConnection;233;2;235;0\nWireConnection;58;0;78;0\nWireConnection;20;0;68;0\nWireConnection;20;1;14;0\nWireConnection;5;0;3;0\nWireConnection;5;1;2;0\nWireConnection;232;1;224;0\nWireConnection;266;0;17;3\nWireConnection;53;0;16;4\nWireConnection;35;0;30;0\nWireConnection;35;3;34;0\nWireConnection;176;0;174;0\nWireConnection;176;1;175;0\nWireConnection;250;0;257;0\nWireConnection;25;0;22;0\nWireConnection;25;1;20;0\nWireConnection;25;2;21;0\nWireConnection;25;3;18;0\nWireConnection;213;0;181;0\nWireConnection;249;0;264;0\nWireConnection;265;0;17;2\nWireConnection;169;0;196;0\nWireConnection;169;1;166;0\nWireConnection;18;0;70;0\nWireConnection;18;1;12;0\nWireConnection;21;0;69;0\nWireConnection;21;1;15;0\nWireConnection;34;0;83;0\nWireConnection;34;1;72;0\nWireConnection;236;2;233;0\nWireConnection;236;3;240;0\nWireConnection;182;1;214;0\nWireConnection;182;2;207;0\nWireConnection;175;0;170;0\nWireConnection;175;1;171;0\nWireConnection;175;2;169;0\nWireConnection;175;3;172;0\nWireConnection;209;0;182;0\nWireConnection;166;0;200;0\nWireConnection;166;1;201;0\nWireConnection;166;2;202;0\nWireConnection;258;3;257;0\nWireConnection;165;0;201;0\nWireConnection;165;1;198;0\nWireConnection;165;2;202;0\nWireConnection;239;2;233;0\nWireConnection;181;0;178;0\nWireConnection;181;1;176;0\nWireConnection;181;2;203;0\nWireConnection;30;0;27;0\nWireConnection;30;1;28;0\nWireConnection;30;2;71;0\nWireConnection;2;0;1;0\nWireConnection;19;0;76;0\nWireConnection;104;0;103;0\nWireConnection;104;1;102;0\nWireConnection;170;0;194;0\nWireConnection;170;1;168;0\nWireConnection;271;0;270;0\nWireConnection;228;0;232;0\nWireConnection;227;0;231;0\nWireConnection;100;0;97;0\nWireConnection;231;1;224;0\nWireConnection;231;3;230;0\nWireConnection;206;0;108;0\nWireConnection;14;0;63;0\nWireConnection;14;1;64;0\nWireConnection;14;2;66;0\nWireConnection;158;0;155;0\nWireConnection;257;1;256;0\nWireConnection;257;2;261;0\nWireConnection;159;0;152;0\nWireConnection;211;0;183;0\nWireConnection;28;0;23;0\nWireConnection;28;1;25;0\nWireConnection;108;0;89;0\nWireConnection;108;3;104;0\nWireConnection;171;0;195;0\nWireConnection;171;1;167;0\nWireConnection;167;0;199;0\nWireConnection;167;1;200;0\nWireConnection;167;2;202;0\nWireConnection;143;0;35;0\nWireConnection;253;0;260;0\nWireConnection;76;0;17;0\nWireConnection;241;0;240;0\nWireConnection;168;0;198;0\nWireConnection;168;1;199;0\nWireConnection;168;2;202;0\nWireConnection;22;0;67;0\nWireConnection;22;1;13;0\nWireConnection;55;0;29;0\nWireConnection;17;1;11;0\nWireConnection;282;6;281;0\nWireConnection;282;7;278;0\nWireConnection;282;8;276;1\nWireConnection;281;0;275;0\nWireConnection;279;0;275;0\nWireConnection;280;0;277;3\nWireConnection;278;0;276;1\nWireConnection;283;6;279;2\nWireConnection;283;7;280;0\nWireConnection;283;8;277;3\nWireConnection;284;0;282;0\nWireConnection;285;0;283;0\nWireConnection;275;0;273;0\nWireConnection;275;1;274;0\nWireConnection;274;0;271;0\nWireConnection;274;2;272;0\nWireConnection;357;0;287;0\nWireConnection;358;0;291;0\nWireConnection;303;0;350;0\nWireConnection;293;0;299;0\nWireConnection;293;1;300;0\nWireConnection;304;0;295;0\nWireConnection;305;0;293;0\nWireConnection;295;0;350;0\nWireConnection;295;3;293;0\nWireConnection;350;0;347;0\nWireConnection;350;3;347;0\nWireConnection;350;1;292;0\nWireConnection;350;2;359;0\nWireConnection;353;0;357;0\nWireConnection;353;1;287;0\nWireConnection;353;2;352;1\nWireConnection;354;0;358;0\nWireConnection;354;1;291;0\nWireConnection;354;2;352;1\nWireConnection;292;0;353;0\nWireConnection;292;1;354;0\nWireConnection;292;2;299;0\nWireConnection;348;0;292;0\nWireConnection;347;1;348;0\nWireConnection;347;0;348;0\nWireConnection;359;0;292;0\nWireConnection;86;0;148;0\nWireConnection;0;0;145;0\nWireConnection;339;0;340;0\nWireConnection;85;0;146;0\nASEEND*/\n//CHKSM=D8C9C80FE6F04B75A47A2B40F25E25708F5A3062"
  m_functionName: 
  m_description: 
  m_additionalIncludes:
    m_additionalIncludes: []
    m_outsideIncludes: []
  m_additionalPragmas:
    m_additionalPragmas: []
    m_outsidePragmas: []
  m_additionalDirectives:
    m_validData: 0
    m_isDirty: 1
    m_moduleName: ' Additional Directives'
    m_independentModule: 1
    m_additionalDirectives: []
    m_shaderFunctionDirectives: []
    m_nativeDirectives: []
    m_nativeDirectivesIndex: -1
    m_nativeDirectivesFoldout: 0
    m_directivesSaveItems: []
  m_nodeCategory: 0
  m_customNodeCategory: The Vegetation Engine
  m_previewPosition: 0
  m_hidden: 0
